{
"SHIFTGRID": [
	{
		"SHIFT_TYPE_ID" : 84,
		"SUB_SYSTEM" : "BRIL",
		"SHIFT_TYPE" : "BCM1F_BHM",
		"ORDER_NUM" : 1,
		"START_HOUR" : "0001-01-01T08:30:00Z",
		"END_HOUR" : "0001-01-02T08:30:00Z"
	},
	{
		"SHIFT_TYPE_ID" : 82,
		"SUB_SYSTEM" : "BRIL",
		"SHIFT_TYPE" : "DOC",
		"ORDER_NUM" : 1,
		"START_HOUR" : "0001-01-01T08:30:00Z",
		"END_HOUR" : "0001-01-02T08:30:00Z"
	},
	{
		"SHIFT_TYPE_ID" : 85,
		"SUB_SYSTEM" : "BRIL",
		"SHIFT_TYPE" : "HFLUMI",
		"ORDER_NUM" : 1,
		"START_HOUR" : "0001-01-01T08:30:00Z",
		"END_HOUR" : "0001-01-02T08:30:00Z"
	},
	{
		"SHIFT_TYPE_ID" : 83,
		"SUB_SYSTEM" : "BRIL",
		"SHIFT_TYPE" : "PLT",
		"ORDER_NUM" : 1,
		"START_HOUR" : "0001-01-01T08:30:00Z",
		"END_HOUR" : "0001-01-02T08:30:00Z"
	},
	{
		"SHIFT_TYPE_ID" : 86,
		"SUB_SYSTEM" : "BRIL",
		"SHIFT_TYPE" : "Safety_Timing",
		"ORDER_NUM" : 1,
		"START_HOUR" : "0001-01-01T08:30:00Z",
		"END_HOUR" : "0001-01-02T08:30:00Z"
	},
	{
		"SHIFT_TYPE_ID" : 87,
		"SUB_SYSTEM" : "BRIL",
		"SHIFT_TYPE" : "Shift",
		"ORDER_NUM" : 1,
		"START_HOUR" : "0001-01-01T06:00:00Z",
		"END_HOUR" : "0001-01-01T14:00:00Z"
	},
	{
		"SHIFT_TYPE_ID" : 37,
		"SUB_SYSTEM" : "CSC",
		"SHIFT_TYPE" : "DOC",
		"ORDER_NUM" : 1,
		"START_HOUR" : "0001-01-01T17:00:00Z",
		"END_HOUR" : "0001-01-08T17:00:00Z"
	},
	{
		"SHIFT_TYPE_ID" : 16,
		"SUB_SYSTEM" : "CSC",
		"SHIFT_TYPE" : "DQM_Shift",
		"ORDER_NUM" : 1,
		"START_HOUR" : "0001-01-01T17:00:00Z",
		"END_HOUR" : "0001-01-08T00:00:00Z"
	},
	{
		"SHIFT_TYPE_ID" : 90,
		"SUB_SYSTEM" : "CT-PPS",
		"SHIFT_TYPE" : "DOC",
		"ORDER_NUM" : 1,
		"START_HOUR" : "0001-01-01T07:00:00Z",
		"END_HOUR" : "0001-01-08T07:00:00Z"
	},
	{
		"SHIFT_TYPE_ID" : 91,
		"SUB_SYSTEM" : "CT-PPS",
		"SHIFT_TYPE" : "Off line",
		"ORDER_NUM" : 1,
		"START_HOUR" : "0001-01-01T07:00:00Z",
		"END_HOUR" : "0001-01-08T07:00:00Z"
	},
	{
		"SHIFT_TYPE_ID" : 2,
		"SUB_SYSTEM" : "Central",
		"SHIFT_TYPE" : "DCS",
		"ORDER_NUM" : 1,
		"START_HOUR" : "0001-01-01T22:00:00Z",
		"END_HOUR" : "0001-01-02T06:00:00Z"
	},
	{
		"SHIFT_TYPE_ID" : 2,
		"SUB_SYSTEM" : "Central",
		"SHIFT_TYPE" : "DCS",
		"ORDER_NUM" : 2,
		"START_HOUR" : "0001-01-01T06:00:00Z",
		"END_HOUR" : "0001-01-01T14:00:00Z"
	},
	{
		"SHIFT_TYPE_ID" : 2,
		"SUB_SYSTEM" : "Central",
		"SHIFT_TYPE" : "DCS",
		"ORDER_NUM" : 3,
		"START_HOUR" : "0001-01-01T14:00:00Z",
		"END_HOUR" : "0001-01-01T22:00:00Z"
	},
	{
		"SHIFT_TYPE_ID" : 2,
		"SUB_SYSTEM" : "Central",
		"SHIFT_TYPE" : "DCS",
		"ORDER_NUM" : 4,
		"START_HOUR" : "0001-01-01T06:00:00Z",
		"END_HOUR" : "0001-01-01T12:00:00Z"
	},
	{
		"SHIFT_TYPE_ID" : 2,
		"SUB_SYSTEM" : "Central",
		"SHIFT_TYPE" : "DCS",
		"ORDER_NUM" : 5,
		"START_HOUR" : "0001-01-01T12:00:00Z",
		"END_HOUR" : "0001-01-01T18:00:00Z"
	},
	{
		"SHIFT_TYPE_ID" : 20,
		"SUB_SYSTEM" : "Central",
		"SHIFT_TYPE" : "DCS expert",
		"ORDER_NUM" : 1,
		"START_HOUR" : "0001-01-01T09:00:00Z",
		"END_HOUR" : "0001-01-08T09:00:00Z"
	},
	{
		"SHIFT_TYPE_ID" : 20,
		"SUB_SYSTEM" : "Central",
		"SHIFT_TYPE" : "DCS expert",
		"ORDER_NUM" : 2,
		"START_HOUR" : "0001-01-01T07:00:00Z",
		"END_HOUR" : "0001-01-02T07:00:00Z"
	},
	{
		"SHIFT_TYPE_ID" : 96,
		"SUB_SYSTEM" : "Central",
		"SHIFT_TYPE" : "DCS on call",
		"ORDER_NUM" : 1,
		"START_HOUR" : "0001-01-01T09:00:00Z",
		"END_HOUR" : "0001-01-08T09:00:00Z"
	},
	{
		"SHIFT_TYPE_ID" : 77,
		"SUB_SYSTEM" : "Central",
		"SHIFT_TYPE" : "DOC: lumi",
		"ORDER_NUM" : 1,
		"START_HOUR" : "0001-12-31T23:00:00Z",
		"END_HOUR" : "0001-01-01T23:00:00Z"
	},
	{
		"SHIFT_TYPE_ID" : 21,
		"SUB_SYSTEM" : "Central",
		"SHIFT_TYPE" : "Run field manager",
		"ORDER_NUM" : 1,
		"START_HOUR" : "0001-12-31T23:00:00Z",
		"END_HOUR" : "0001-01-07T23:00:00Z"
	},
	{
		"SHIFT_TYPE_ID" : 8,
		"SUB_SYSTEM" : "Central",
		"SHIFT_TYPE" : "Shift_leader",
		"ORDER_NUM" : 1,
		"START_HOUR" : "0001-01-01T22:00:00Z",
		"END_HOUR" : "0001-01-02T06:00:00Z"
	},
	{
		"SHIFT_TYPE_ID" : 8,
		"SUB_SYSTEM" : "Central",
		"SHIFT_TYPE" : "Shift_leader",
		"ORDER_NUM" : 2,
		"START_HOUR" : "0001-01-01T06:00:00Z",
		"END_HOUR" : "0001-01-01T14:00:00Z"
	},
	{
		"SHIFT_TYPE_ID" : 8,
		"SUB_SYSTEM" : "Central",
		"SHIFT_TYPE" : "Shift_leader",
		"ORDER_NUM" : 3,
		"START_HOUR" : "0001-01-01T14:00:00Z",
		"END_HOUR" : "0001-01-01T22:00:00Z"
	},
	{
		"SHIFT_TYPE_ID" : 8,
		"SUB_SYSTEM" : "Central",
		"SHIFT_TYPE" : "Shift_leader",
		"ORDER_NUM" : 4,
		"START_HOUR" : "0001-01-01T06:00:00Z",
		"END_HOUR" : "0001-01-01T12:00:00Z"
	},
	{
		"SHIFT_TYPE_ID" : 8,
		"SUB_SYSTEM" : "Central",
		"SHIFT_TYPE" : "Shift_leader",
		"ORDER_NUM" : 5,
		"START_HOUR" : "0001-01-01T12:00:00Z",
		"END_HOUR" : "0001-01-01T18:00:00Z"
	},
	{
		"SHIFT_TYPE_ID" : 74,
		"SUB_SYSTEM" : "Central",
		"SHIFT_TYPE" : "on line DB",
		"ORDER_NUM" : 1,
		"START_HOUR" : "0001-01-01T09:00:00Z",
		"END_HOUR" : "0001-01-08T09:00:00Z"
	},
	{
		"SHIFT_TYPE_ID" : 23,
		"SUB_SYSTEM" : "Computing",
		"SHIFT_TYPE" : "CRC",
		"ORDER_NUM" : 1,
		"START_HOUR" : "0001-01-01T07:00:00Z",
		"END_HOUR" : "0001-01-08T07:00:00Z"
	},
	{
		"SHIFT_TYPE_ID" : 25,
		"SUB_SYSTEM" : "Computing",
		"SHIFT_TYPE" : "CSP",
		"ORDER_NUM" : 1,
		"START_HOUR" : "0001-01-01T00:00:00Z",
		"END_HOUR" : "0001-01-01T08:00:00Z"
	},
	{
		"SHIFT_TYPE_ID" : 25,
		"SUB_SYSTEM" : "Computing",
		"SHIFT_TYPE" : "CSP",
		"ORDER_NUM" : 2,
		"START_HOUR" : "0001-01-01T08:00:00Z",
		"END_HOUR" : "0001-01-01T16:00:00Z"
	},
	{
		"SHIFT_TYPE_ID" : 25,
		"SUB_SYSTEM" : "Computing",
		"SHIFT_TYPE" : "CSP",
		"ORDER_NUM" : 3,
		"START_HOUR" : "0001-01-01T16:00:00Z",
		"END_HOUR" : "0001-01-02T00:00:00Z"
	},
	{
		"SHIFT_TYPE_ID" : 39,
		"SUB_SYSTEM" : "DAQ",
		"SHIFT_TYPE" : "DOC",
		"ORDER_NUM" : 1,
		"START_HOUR" : "0001-01-01T11:00:00Z",
		"END_HOUR" : "0001-01-02T11:00:00Z"
	},
	{
		"SHIFT_TYPE_ID" : 1,
		"SUB_SYSTEM" : "DAQ",
		"SHIFT_TYPE" : "Shifter",
		"ORDER_NUM" : 1,
		"START_HOUR" : "0001-01-01T22:00:00Z",
		"END_HOUR" : "0001-01-02T06:00:00Z"
	},
	{
		"SHIFT_TYPE_ID" : 1,
		"SUB_SYSTEM" : "DAQ",
		"SHIFT_TYPE" : "Shifter",
		"ORDER_NUM" : 2,
		"START_HOUR" : "0001-01-01T06:00:00Z",
		"END_HOUR" : "0001-01-01T14:00:00Z"
	},
	{
		"SHIFT_TYPE_ID" : 1,
		"SUB_SYSTEM" : "DAQ",
		"SHIFT_TYPE" : "Shifter",
		"ORDER_NUM" : 3,
		"START_HOUR" : "0001-01-01T14:00:00Z",
		"END_HOUR" : "0001-01-01T22:00:00Z"
	},
	{
		"SHIFT_TYPE_ID" : 47,
		"SUB_SYSTEM" : "DAQ",
		"SHIFT_TYPE" : "sysadmin oncall",
		"ORDER_NUM" : 1,
		"START_HOUR" : "0001-01-01T11:00:00Z",
		"END_HOUR" : "0001-01-02T11:00:00Z"
	},
	{
		"SHIFT_TYPE_ID" : 6,
		"SUB_SYSTEM" : "DQM",
		"SHIFT_TYPE" : "Offline",
		"ORDER_NUM" : 1,
		"START_HOUR" : "0001-01-01T00:00:00Z",
		"END_HOUR" : "0001-01-01T06:00:00Z"
	},
	{
		"SHIFT_TYPE_ID" : 6,
		"SUB_SYSTEM" : "DQM",
		"SHIFT_TYPE" : "Offline",
		"ORDER_NUM" : 2,
		"START_HOUR" : "0001-01-01T06:00:00Z",
		"END_HOUR" : "0001-01-01T12:00:00Z"
	},
	{
		"SHIFT_TYPE_ID" : 6,
		"SUB_SYSTEM" : "DQM",
		"SHIFT_TYPE" : "Offline",
		"ORDER_NUM" : 3,
		"START_HOUR" : "0001-01-01T12:00:00Z",
		"END_HOUR" : "0001-01-01T18:00:00Z"
	},
	{
		"SHIFT_TYPE_ID" : 6,
		"SUB_SYSTEM" : "DQM",
		"SHIFT_TYPE" : "Offline",
		"ORDER_NUM" : 4,
		"START_HOUR" : "0001-01-01T18:00:00Z",
		"END_HOUR" : "0001-01-02T00:00:00Z"
	},
	{
		"SHIFT_TYPE_ID" : 3,
		"SUB_SYSTEM" : "DQM",
		"SHIFT_TYPE" : "P5",
		"ORDER_NUM" : 1,
		"START_HOUR" : "0001-01-01T22:00:00Z",
		"END_HOUR" : "0001-01-02T06:00:00Z"
	},
	{
		"SHIFT_TYPE_ID" : 3,
		"SUB_SYSTEM" : "DQM",
		"SHIFT_TYPE" : "P5",
		"ORDER_NUM" : 2,
		"START_HOUR" : "0001-01-01T06:00:00Z",
		"END_HOUR" : "0001-01-01T14:00:00Z"
	},
	{
		"SHIFT_TYPE_ID" : 3,
		"SUB_SYSTEM" : "DQM",
		"SHIFT_TYPE" : "P5",
		"ORDER_NUM" : 3,
		"START_HOUR" : "0001-01-01T14:00:00Z",
		"END_HOUR" : "0001-01-01T22:00:00Z"
	},
	{
		"SHIFT_TYPE_ID" : 53,
		"SUB_SYSTEM" : "DQM",
		"SHIFT_TYPE" : "Supervision",
		"ORDER_NUM" : 1,
		"START_HOUR" : "0001-12-31T23:00:00Z",
		"END_HOUR" : "0001-01-01T23:00:00Z"
	},
	{
		"SHIFT_TYPE_ID" : 54,
		"SUB_SYSTEM" : "DQM",
		"SHIFT_TYPE" : "System operation",
		"ORDER_NUM" : 1,
		"START_HOUR" : "0001-12-31T23:00:00Z",
		"END_HOUR" : "0001-01-01T23:00:00Z"
	},
	{
		"SHIFT_TYPE_ID" : 75,
		"SUB_SYSTEM" : "DT",
		"SHIFT_TYPE" : "DOC",
		"ORDER_NUM" : 1,
		"START_HOUR" : "0001-12-31T23:00:00Z",
		"END_HOUR" : "0001-01-01T23:00:00Z"
	},
	{
		"SHIFT_TYPE_ID" : 49,
		"SUB_SYSTEM" : "DT",
		"SHIFT_TYPE" : "calibration expert",
		"ORDER_NUM" : 1,
		"START_HOUR" : "0001-01-01T08:00:00Z",
		"END_HOUR" : "0001-01-01T18:00:00Z"
	},
	{
		"SHIFT_TYPE_ID" : 29,
		"SUB_SYSTEM" : "DT",
		"SHIFT_TYPE" : "field manager",
		"ORDER_NUM" : 1,
		"START_HOUR" : "0001-01-01T22:00:00Z",
		"END_HOUR" : "0001-01-02T06:00:00Z"
	},
	{
		"SHIFT_TYPE_ID" : 29,
		"SUB_SYSTEM" : "DT",
		"SHIFT_TYPE" : "field manager",
		"ORDER_NUM" : 2,
		"START_HOUR" : "0001-01-01T06:00:00Z",
		"END_HOUR" : "0001-01-01T14:00:00Z"
	},
	{
		"SHIFT_TYPE_ID" : 29,
		"SUB_SYSTEM" : "DT",
		"SHIFT_TYPE" : "field manager",
		"ORDER_NUM" : 3,
		"START_HOUR" : "0001-01-01T14:00:00Z",
		"END_HOUR" : "0001-01-01T22:00:00Z"
	},
	{
		"SHIFT_TYPE_ID" : 30,
		"SUB_SYSTEM" : "DT",
		"SHIFT_TYPE" : "off line",
		"ORDER_NUM" : 1,
		"START_HOUR" : "0001-01-01T08:00:00Z",
		"END_HOUR" : "0001-01-01T16:00:00Z"
	},
	{
		"SHIFT_TYPE_ID" : 48,
		"SUB_SYSTEM" : "DT",
		"SHIFT_TYPE" : "offline expert",
		"ORDER_NUM" : 1,
		"START_HOUR" : "0001-01-01T08:00:00Z",
		"END_HOUR" : "0001-01-01T20:00:00Z"
	},
	{
		"SHIFT_TYPE_ID" : 15,
		"SUB_SYSTEM" : "DT",
		"SHIFT_TYPE" : "on line",
		"ORDER_NUM" : 1,
		"START_HOUR" : "0001-01-01T22:00:00Z",
		"END_HOUR" : "0001-01-02T06:00:00Z"
	},
	{
		"SHIFT_TYPE_ID" : 15,
		"SUB_SYSTEM" : "DT",
		"SHIFT_TYPE" : "on line",
		"ORDER_NUM" : 2,
		"START_HOUR" : "0001-01-01T06:00:00Z",
		"END_HOUR" : "0001-01-01T14:00:00Z"
	},
	{
		"SHIFT_TYPE_ID" : 15,
		"SUB_SYSTEM" : "DT",
		"SHIFT_TYPE" : "on line",
		"ORDER_NUM" : 3,
		"START_HOUR" : "0001-01-01T14:00:00Z",
		"END_HOUR" : "0001-01-01T22:00:00Z"
	},
	{
		"SHIFT_TYPE_ID" : 76,
		"SUB_SYSTEM" : "ECAL",
		"SHIFT_TYPE" : "DAQ expert on call",
		"ORDER_NUM" : 1,
		"START_HOUR" : "0001-12-31T23:00:00Z",
		"END_HOUR" : "0001-01-01T23:00:00Z"
	},
	{
		"SHIFT_TYPE_ID" : 9,
		"SUB_SYSTEM" : "ECAL",
		"SHIFT_TYPE" : "DCS expert on call",
		"ORDER_NUM" : 1,
		"START_HOUR" : "0001-01-01T15:00:00Z",
		"END_HOUR" : "0001-01-02T15:00:00Z"
	},
	{
		"SHIFT_TYPE_ID" : 89,
		"SUB_SYSTEM" : "ECAL",
		"SHIFT_TYPE" : "DCS operator",
		"ORDER_NUM" : 1,
		"START_HOUR" : "0001-01-01T15:00:00Z",
		"END_HOUR" : "0001-01-02T15:00:00Z"
	},
	{
		"SHIFT_TYPE_ID" : 40,
		"SUB_SYSTEM" : "ECAL",
		"SHIFT_TYPE" : "DG Lieutenant",
		"ORDER_NUM" : 1,
		"START_HOUR" : "0001-12-31T23:00:00Z",
		"END_HOUR" : "0001-01-01T23:00:00Z"
	},
	{
		"SHIFT_TYPE_ID" : 42,
		"SUB_SYSTEM" : "ECAL",
		"SHIFT_TYPE" : "DOC",
		"ORDER_NUM" : 1,
		"START_HOUR" : "0001-12-31T23:00:00Z",
		"END_HOUR" : "0001-01-01T23:00:00Z"
	},
	{
		"SHIFT_TYPE_ID" : 28,
		"SUB_SYSTEM" : "ECAL",
		"SHIFT_TYPE" : "PFG expert",
		"ORDER_NUM" : 1,
		"START_HOUR" : "0001-12-31T23:00:00Z",
		"END_HOUR" : "0001-01-01T23:00:00Z"
	},
	{
		"SHIFT_TYPE_ID" : 80,
		"SUB_SYSTEM" : "ECAL",
		"SHIFT_TYPE" : "Test beam",
		"ORDER_NUM" : 1,
		"START_HOUR" : "0001-12-31T23:00:00Z",
		"END_HOUR" : "0001-01-01T07:00:00Z"
	},
	{
		"SHIFT_TYPE_ID" : 80,
		"SUB_SYSTEM" : "ECAL",
		"SHIFT_TYPE" : "Test beam",
		"ORDER_NUM" : 2,
		"START_HOUR" : "0001-01-01T07:00:00Z",
		"END_HOUR" : "0001-01-01T15:00:00Z"
	},
	{
		"SHIFT_TYPE_ID" : 80,
		"SUB_SYSTEM" : "ECAL",
		"SHIFT_TYPE" : "Test beam",
		"ORDER_NUM" : 3,
		"START_HOUR" : "0001-01-01T15:00:00Z",
		"END_HOUR" : "0001-01-01T23:00:00Z"
	},
	{
		"SHIFT_TYPE_ID" : 52,
		"SUB_SYSTEM" : "ECAL",
		"SHIFT_TYPE" : "trigger expert on call",
		"ORDER_NUM" : 1,
		"START_HOUR" : "0001-12-31T23:00:00Z",
		"END_HOUR" : "0001-01-01T23:00:00Z"
	},
	{
		"SHIFT_TYPE_ID" : 98,
		"SUB_SYSTEM" : "GEM",
		"SHIFT_TYPE" : "DAQ expert",
		"ORDER_NUM" : 1,
		"START_HOUR" : "0001-01-01T07:00:00Z",
		"END_HOUR" : "0001-01-08T07:00:00Z"
	},
	{
		"SHIFT_TYPE_ID" : 99,
		"SUB_SYSTEM" : "GEM",
		"SHIFT_TYPE" : "DCS expert",
		"ORDER_NUM" : 1,
		"START_HOUR" : "0001-01-01T07:00:00Z",
		"END_HOUR" : "0001-01-08T07:00:00Z"
	},
	{
		"SHIFT_TYPE_ID" : 92,
		"SUB_SYSTEM" : "GEM",
		"SHIFT_TYPE" : "DOC",
		"ORDER_NUM" : 1,
		"START_HOUR" : "0001-01-01T07:00:00Z",
		"END_HOUR" : "0001-01-08T07:00:00Z"
	},
	{
		"SHIFT_TYPE_ID" : 120,
		"SUB_SYSTEM" : "GEM",
		"SHIFT_TYPE" : "Offline",
		"ORDER_NUM" : 1,
		"START_HOUR" : "0001-01-01T07:00:00Z",
		"END_HOUR" : "0001-01-08T07:00:00Z"
	},
	{
		"SHIFT_TYPE_ID" : 26,
		"SUB_SYSTEM" : "HCAL",
		"SHIFT_TYPE" : "DOC",
		"ORDER_NUM" : 1,
		"START_HOUR" : "0001-01-01T18:00:00Z",
		"END_HOUR" : "0001-01-02T06:00:00Z"
	},
	{
		"SHIFT_TYPE_ID" : 26,
		"SUB_SYSTEM" : "HCAL",
		"SHIFT_TYPE" : "DOC",
		"ORDER_NUM" : 2,
		"START_HOUR" : "0001-01-01T06:00:00Z",
		"END_HOUR" : "0001-01-01T18:00:00Z"
	},
	{
		"SHIFT_TYPE_ID" : 81,
		"SUB_SYSTEM" : "HCAL",
		"SHIFT_TYPE" : "Off line",
		"ORDER_NUM" : 1,
		"START_HOUR" : "0001-01-01T07:00:00Z",
		"END_HOUR" : "0001-01-01T15:00:00Z"
	},
	{
		"SHIFT_TYPE_ID" : 81,
		"SUB_SYSTEM" : "HCAL",
		"SHIFT_TYPE" : "Off line",
		"ORDER_NUM" : 2,
		"START_HOUR" : "0001-01-01T19:00:00Z",
		"END_HOUR" : "0001-01-02T03:00:00Z"
	},
	{
		"SHIFT_TYPE_ID" : 41,
		"SUB_SYSTEM" : "HCAL",
		"SHIFT_TYPE" : "Operation Support",
		"ORDER_NUM" : 1,
		"START_HOUR" : "0001-01-01T18:00:00Z",
		"END_HOUR" : "0001-01-02T06:00:00Z"
	},
	{
		"SHIFT_TYPE_ID" : 41,
		"SUB_SYSTEM" : "HCAL",
		"SHIFT_TYPE" : "Operation Support",
		"ORDER_NUM" : 2,
		"START_HOUR" : "0001-01-01T06:00:00Z",
		"END_HOUR" : "0001-01-01T18:00:00Z"
	},
	{
		"SHIFT_TYPE_ID" : 64,
		"SUB_SYSTEM" : "HCAL",
		"SHIFT_TYPE" : "PFG",
		"ORDER_NUM" : 1,
		"START_HOUR" : "0001-01-01T07:00:00Z",
		"END_HOUR" : "0001-01-01T15:00:00Z"
	},
	{
		"SHIFT_TYPE_ID" : 64,
		"SUB_SYSTEM" : "HCAL",
		"SHIFT_TYPE" : "PFG",
		"ORDER_NUM" : 2,
		"START_HOUR" : "0001-01-01T15:00:00Z",
		"END_HOUR" : "0001-01-01T23:00:00Z"
	},
	{
		"SHIFT_TYPE_ID" : 64,
		"SUB_SYSTEM" : "HCAL",
		"SHIFT_TYPE" : "PFG",
		"ORDER_NUM" : 3,
		"START_HOUR" : "0001-12-31T23:00:00Z",
		"END_HOUR" : "0001-01-01T07:00:00Z"
	},
	{
		"SHIFT_TYPE_ID" : 38,
		"SUB_SYSTEM" : "HCAL",
		"SHIFT_TYPE" : "remote",
		"ORDER_NUM" : 1,
		"START_HOUR" : "0001-01-01T22:00:00Z",
		"END_HOUR" : "0001-01-02T06:00:00Z"
	},
	{
		"SHIFT_TYPE_ID" : 38,
		"SUB_SYSTEM" : "HCAL",
		"SHIFT_TYPE" : "remote",
		"ORDER_NUM" : 2,
		"START_HOUR" : "0001-01-01T06:00:00Z",
		"END_HOUR" : "0001-01-01T14:00:00Z"
	},
	{
		"SHIFT_TYPE_ID" : 38,
		"SUB_SYSTEM" : "HCAL",
		"SHIFT_TYPE" : "remote",
		"ORDER_NUM" : 3,
		"START_HOUR" : "0001-01-01T14:00:00Z",
		"END_HOUR" : "0001-01-01T22:00:00Z"
	},
	{
		"SHIFT_TYPE_ID" : 88,
		"SUB_SYSTEM" : "HGCAL",
		"SHIFT_TYPE" : "Shift",
		"ORDER_NUM" : 1,
		"START_HOUR" : "0001-12-31T23:00:00Z",
		"END_HOUR" : "0001-01-01T07:00:00Z"
	},
	{
		"SHIFT_TYPE_ID" : 88,
		"SUB_SYSTEM" : "HGCAL",
		"SHIFT_TYPE" : "Shift",
		"ORDER_NUM" : 2,
		"START_HOUR" : "0001-01-01T07:00:00Z",
		"END_HOUR" : "0001-01-01T15:00:00Z"
	},
	{
		"SHIFT_TYPE_ID" : 88,
		"SUB_SYSTEM" : "HGCAL",
		"SHIFT_TYPE" : "Shift",
		"ORDER_NUM" : 3,
		"START_HOUR" : "0001-01-01T15:00:00Z",
		"END_HOUR" : "0001-01-01T23:00:00Z"
	},
	{
		"SHIFT_TYPE_ID" : 100,
		"SUB_SYSTEM" : "MTD",
		"SHIFT_TYPE" : "Shifter",
		"ORDER_NUM" : 1,
		"START_HOUR" : "0001-01-01T11:00:00Z",
		"END_HOUR" : "0001-01-02T11:00:00Z"
	},
	{
		"SHIFT_TYPE_ID" : 93,
		"SUB_SYSTEM" : "MUON",
		"SHIFT_TYPE" : "Certification",
		"ORDER_NUM" : 1,
		"START_HOUR" : "0001-01-01T07:00:00Z",
		"END_HOUR" : "0001-01-08T07:00:00Z"
	},
	{
		"SHIFT_TYPE_ID" : 94,
		"SUB_SYSTEM" : "MUON",
		"SHIFT_TYPE" : "Trend Monitor",
		"ORDER_NUM" : 1,
		"START_HOUR" : "0001-01-01T07:00:00Z",
		"END_HOUR" : "0001-01-08T07:00:00Z"
	},
	{
		"SHIFT_TYPE_ID" : 73,
		"SUB_SYSTEM" : "Off-line",
		"SHIFT_TYPE" : "Calibration",
		"ORDER_NUM" : 1,
		"START_HOUR" : "0001-01-01T07:00:00Z",
		"END_HOUR" : "0001-01-08T07:00:00Z"
	},
	{
		"SHIFT_TYPE_ID" : 69,
		"SUB_SYSTEM" : "Off-line",
		"SHIFT_TYPE" : "DB expert",
		"ORDER_NUM" : 1,
		"START_HOUR" : "0001-01-01T07:00:00Z",
		"END_HOUR" : "0001-01-08T07:00:00Z"
	},
	{
		"SHIFT_TYPE_ID" : 70,
		"SUB_SYSTEM" : "Off-line",
		"SHIFT_TYPE" : "Event display",
		"ORDER_NUM" : 1,
		"START_HOUR" : "0001-01-01T07:00:00Z",
		"END_HOUR" : "0001-01-08T07:00:00Z"
	},
	{
		"SHIFT_TYPE_ID" : 55,
		"SUB_SYSTEM" : "Off-line",
		"SHIFT_TYPE" : "ORM",
		"ORDER_NUM" : 1,
		"START_HOUR" : "0001-01-01T07:00:00Z",
		"END_HOUR" : "0001-01-08T07:00:00Z"
	},
	{
		"SHIFT_TYPE_ID" : 72,
		"SUB_SYSTEM" : "Off-line",
		"SHIFT_TYPE" : "Prompt reco",
		"ORDER_NUM" : 1,
		"START_HOUR" : "0001-01-01T07:00:00Z",
		"END_HOUR" : "0001-01-08T07:00:00Z"
	},
	{
		"SHIFT_TYPE_ID" : 71,
		"SUB_SYSTEM" : "Off-line",
		"SHIFT_TYPE" : "Release manager",
		"ORDER_NUM" : 1,
		"START_HOUR" : "0001-01-01T07:00:00Z",
		"END_HOUR" : "0001-01-08T07:00:00Z"
	},
	{
		"SHIFT_TYPE_ID" : 78,
		"SUB_SYSTEM" : "Pixel",
		"SHIFT_TYPE" : "DAQ on call",
		"ORDER_NUM" : 1,
		"START_HOUR" : "0001-12-31T23:00:00Z",
		"END_HOUR" : "0001-01-01T23:00:00Z"
	},
	{
		"SHIFT_TYPE_ID" : 46,
		"SUB_SYSTEM" : "Pixel",
		"SHIFT_TYPE" : "DOC",
		"ORDER_NUM" : 1,
		"START_HOUR" : "0001-12-31T23:00:00Z",
		"END_HOUR" : "0001-01-01T23:00:00Z"
	},
	{
		"SHIFT_TYPE_ID" : 22,
		"SUB_SYSTEM" : "Pixel",
		"SHIFT_TYPE" : "DQM on call",
		"ORDER_NUM" : 1,
		"START_HOUR" : "0001-12-31T23:00:00Z",
		"END_HOUR" : "0001-01-01T23:00:00Z"
	},
	{
		"SHIFT_TYPE_ID" : 45,
		"SUB_SYSTEM" : "Pixel",
		"SHIFT_TYPE" : "P5-Technical",
		"ORDER_NUM" : 1,
		"START_HOUR" : "0001-12-31T23:00:00Z",
		"END_HOUR" : "0001-01-01T23:00:00Z"
	},
	{
		"SHIFT_TYPE_ID" : 14,
		"SUB_SYSTEM" : "RPC",
		"SHIFT_TYPE" : "CAF",
		"ORDER_NUM" : 1,
		"START_HOUR" : "0001-01-01T08:00:00Z",
		"END_HOUR" : "0001-01-01T17:00:00Z"
	},
	{
		"SHIFT_TYPE_ID" : 11,
		"SUB_SYSTEM" : "RPC",
		"SHIFT_TYPE" : "DOC",
		"ORDER_NUM" : 1,
		"START_HOUR" : "0001-12-31T23:00:00Z",
		"END_HOUR" : "0001-01-01T23:00:00Z"
	},
	{
		"SHIFT_TYPE_ID" : 10,
		"SUB_SYSTEM" : "RPC",
		"SHIFT_TYPE" : "Data Manager",
		"ORDER_NUM" : 1,
		"START_HOUR" : "0001-12-31T23:00:00Z",
		"END_HOUR" : "0001-01-01T23:00:00Z"
	},
	{
		"SHIFT_TYPE_ID" : 12,
		"SUB_SYSTEM" : "RPC",
		"SHIFT_TYPE" : "Detector O&M",
		"ORDER_NUM" : 1,
		"START_HOUR" : "0001-01-01T08:00:00Z",
		"END_HOUR" : "0001-01-01T16:00:00Z"
	},
	{
		"SHIFT_TYPE_ID" : 13,
		"SUB_SYSTEM" : "RPC",
		"SHIFT_TYPE" : "Trigger O&M",
		"ORDER_NUM" : 1,
		"START_HOUR" : "0001-12-31T23:00:00Z",
		"END_HOUR" : "0001-01-01T23:00:00Z"
	},
	{
		"SHIFT_TYPE_ID" : 67,
		"SUB_SYSTEM" : "TC",
		"SHIFT_TYPE" : "165000",
		"ORDER_NUM" : 1,
		"START_HOUR" : "0001-01-01T08:00:00Z",
		"END_HOUR" : "0001-01-02T08:00:00Z"
	},
	{
		"SHIFT_TYPE_ID" : 68,
		"SUB_SYSTEM" : "TC",
		"SHIFT_TYPE" : "165001",
		"ORDER_NUM" : 1,
		"START_HOUR" : "0001-01-01T08:00:00Z",
		"END_HOUR" : "0001-01-08T08:00:00Z"
	},
	{
		"SHIFT_TYPE_ID" : 61,
		"SUB_SYSTEM" : "TC",
		"SHIFT_TYPE" : "Piquet-DSS",
		"ORDER_NUM" : 1,
		"START_HOUR" : "0001-01-01T07:30:00Z",
		"END_HOUR" : "0001-01-08T07:30:00Z"
	},
	{
		"SHIFT_TYPE_ID" : 58,
		"SUB_SYSTEM" : "TC",
		"SHIFT_TYPE" : "Piquet-cooling",
		"ORDER_NUM" : 1,
		"START_HOUR" : "0001-01-01T07:30:00Z",
		"END_HOUR" : "0001-01-08T07:30:00Z"
	},
	{
		"SHIFT_TYPE_ID" : 60,
		"SUB_SYSTEM" : "TC",
		"SHIFT_TYPE" : "Piquet-electricity",
		"ORDER_NUM" : 1,
		"START_HOUR" : "0001-01-01T07:30:00Z",
		"END_HOUR" : "0001-01-08T07:30:00Z"
	},
	{
		"SHIFT_TYPE_ID" : 59,
		"SUB_SYSTEM" : "TC",
		"SHIFT_TYPE" : "Piquet-gas",
		"ORDER_NUM" : 1,
		"START_HOUR" : "0001-01-01T07:30:00Z",
		"END_HOUR" : "0001-01-08T07:30:00Z"
	},
	{
		"SHIFT_TYPE_ID" : 62,
		"SUB_SYSTEM" : "TC",
		"SHIFT_TYPE" : "Piquet-mechanics",
		"ORDER_NUM" : 1,
		"START_HOUR" : "0001-01-01T07:30:00Z",
		"END_HOUR" : "0001-01-08T07:30:00Z"
	},
	{
		"SHIFT_TYPE_ID" : 63,
		"SUB_SYSTEM" : "TC",
		"SHIFT_TYPE" : "Piquet-patrol",
		"ORDER_NUM" : 1,
		"START_HOUR" : "0001-01-01T07:30:00Z",
		"END_HOUR" : "0001-01-08T07:30:00Z"
	},
	{
		"SHIFT_TYPE_ID" : 97,
		"SUB_SYSTEM" : "TC",
		"SHIFT_TYPE" : "RPE on call",
		"ORDER_NUM" : 1,
		"START_HOUR" : "0001-01-01T06:00:00Z",
		"END_HOUR" : "0001-01-08T06:00:00Z"
	},
	{
		"SHIFT_TYPE_ID" : 36,
		"SUB_SYSTEM" : "TC",
		"SHIFT_TYPE" : "Safety tour",
		"ORDER_NUM" : 1,
		"START_HOUR" : "0001-01-01T06:00:00Z",
		"END_HOUR" : "0001-01-01T11:00:00Z"
	},
	{
		"SHIFT_TYPE_ID" : 57,
		"SUB_SYSTEM" : "TRG",
		"SHIFT_TYPE" : "HLT Conditions Validation",
		"ORDER_NUM" : 1,
		"START_HOUR" : "0001-01-01T08:00:00Z",
		"END_HOUR" : "0001-01-02T08:00:00Z"
	},
	{
		"SHIFT_TYPE_ID" : 56,
		"SUB_SYSTEM" : "TRG",
		"SHIFT_TYPE" : "HLT_DOC",
		"ORDER_NUM" : 1,
		"START_HOUR" : "0001-01-01T08:00:00Z",
		"END_HOUR" : "0001-01-02T08:00:00Z"
	},
	{
		"SHIFT_TYPE_ID" : 50,
		"SUB_SYSTEM" : "TRG",
		"SHIFT_TYPE" : "L1_DOC",
		"ORDER_NUM" : 1,
		"START_HOUR" : "0001-12-31T23:00:00Z",
		"END_HOUR" : "0001-01-01T23:00:00Z"
	},
	{
		"SHIFT_TYPE_ID" : 51,
		"SUB_SYSTEM" : "TRG",
		"SHIFT_TYPE" : "Prompt Feedback Expert",
		"ORDER_NUM" : 1,
		"START_HOUR" : "0001-12-31T23:00:00Z",
		"END_HOUR" : "0001-01-07T23:00:00Z"
	},
	{
		"SHIFT_TYPE_ID" : 4,
		"SUB_SYSTEM" : "TRG",
		"SHIFT_TYPE" : "Shifter",
		"ORDER_NUM" : 1,
		"START_HOUR" : "0001-01-01T22:00:00Z",
		"END_HOUR" : "0001-01-02T06:00:00Z"
	},
	{
		"SHIFT_TYPE_ID" : 4,
		"SUB_SYSTEM" : "TRG",
		"SHIFT_TYPE" : "Shifter",
		"ORDER_NUM" : 2,
		"START_HOUR" : "0001-01-01T06:00:00Z",
		"END_HOUR" : "0001-01-01T14:00:00Z"
	},
	{
		"SHIFT_TYPE_ID" : 4,
		"SUB_SYSTEM" : "TRG",
		"SHIFT_TYPE" : "Shifter",
		"ORDER_NUM" : 3,
		"START_HOUR" : "0001-01-01T14:00:00Z",
		"END_HOUR" : "0001-01-01T22:00:00Z"
	},
	{
		"SHIFT_TYPE_ID" : 95,
		"SUB_SYSTEM" : "TRG",
		"SHIFT_TYPE" : "Trigger Expert Analyst",
		"ORDER_NUM" : 1,
		"START_HOUR" : "0001-01-01T08:00:00Z",
		"END_HOUR" : "0001-01-01T12:00:00Z"
	},
	{
		"SHIFT_TYPE_ID" : 18,
		"SUB_SYSTEM" : "TRK",
		"SHIFT_TYPE" : "DAQ on call",
		"ORDER_NUM" : 1,
		"START_HOUR" : "0001-12-31T23:00:00Z",
		"END_HOUR" : "0001-01-01T23:00:00Z"
	},
	{
		"SHIFT_TYPE_ID" : 19,
		"SUB_SYSTEM" : "TRK",
		"SHIFT_TYPE" : "DCS on call ",
		"ORDER_NUM" : 1,
		"START_HOUR" : "0001-12-31T23:00:00Z",
		"END_HOUR" : "0001-01-01T23:00:00Z"
	},
	{
		"SHIFT_TYPE_ID" : 32,
		"SUB_SYSTEM" : "TRK",
		"SHIFT_TYPE" : "DOC",
		"ORDER_NUM" : 1,
		"START_HOUR" : "0001-12-31T23:00:00Z",
		"END_HOUR" : "0001-01-01T23:00:00Z"
	},
	{
		"SHIFT_TYPE_ID" : 35,
		"SUB_SYSTEM" : "TRK",
		"SHIFT_TYPE" : "DQM on call",
		"ORDER_NUM" : 1,
		"START_HOUR" : "0001-12-31T23:00:00Z",
		"END_HOUR" : "0001-01-01T23:00:00Z"
	},
	{
		"SHIFT_TYPE_ID" : 33,
		"SUB_SYSTEM" : "TRK",
		"SHIFT_TYPE" : "Off line",
		"ORDER_NUM" : 1,
		"START_HOUR" : "0001-01-01T11:00:00Z",
		"END_HOUR" : "0001-01-01T19:00:00Z"
	},
	{
		"SHIFT_TYPE_ID" : 33,
		"SUB_SYSTEM" : "TRK",
		"SHIFT_TYPE" : "Off line",
		"ORDER_NUM" : 2,
		"START_HOUR" : "0001-01-01T07:00:00Z",
		"END_HOUR" : "0001-01-01T15:00:00Z"
	},
	{
		"SHIFT_TYPE_ID" : 33,
		"SUB_SYSTEM" : "TRK",
		"SHIFT_TYPE" : "Off line",
		"ORDER_NUM" : 3,
		"START_HOUR" : "0001-01-01T15:00:00Z",
		"END_HOUR" : "0001-01-01T23:00:00Z"
	},
	{
		"SHIFT_TYPE_ID" : 44,
		"SUB_SYSTEM" : "TRK",
		"SHIFT_TYPE" : "Off line remote",
		"ORDER_NUM" : 1,
		"START_HOUR" : "0001-01-01T15:00:00Z",
		"END_HOUR" : "0001-01-01T23:00:00Z"
	},
	{
		"SHIFT_TYPE_ID" : 44,
		"SUB_SYSTEM" : "TRK",
		"SHIFT_TYPE" : "Off line remote",
		"ORDER_NUM" : 2,
		"START_HOUR" : "0001-01-01T03:00:00Z",
		"END_HOUR" : "0001-01-01T11:00:00Z"
	},
	{
		"SHIFT_TYPE_ID" : 44,
		"SUB_SYSTEM" : "TRK",
		"SHIFT_TYPE" : "Off line remote",
		"ORDER_NUM" : 3,
		"START_HOUR" : "0001-01-01T11:00:00Z",
		"END_HOUR" : "0001-01-01T19:00:00Z"
	},
	{
		"SHIFT_TYPE_ID" : 34,
		"SUB_SYSTEM" : "TRK",
		"SHIFT_TYPE" : "Off line shift leader",
		"ORDER_NUM" : 1,
		"START_HOUR" : "0001-12-31T23:00:00Z",
		"END_HOUR" : "0001-01-01T23:00:00Z"
	},
	{
		"SHIFT_TYPE_ID" : 17,
		"SUB_SYSTEM" : "TRK",
		"SHIFT_TYPE" : "P5",
		"ORDER_NUM" : 3,
		"START_HOUR" : "0001-12-31T23:00:00Z",
		"END_HOUR" : "0001-01-01T23:00:00Z"
	},
	{
		"SHIFT_TYPE_ID" : 79,
		"SUB_SYSTEM" : "WBM",
		"SHIFT_TYPE" : "DOC: WBM\/SCAL\/RTL",
		"ORDER_NUM" : 1,
		"START_HOUR" : "0001-12-31T23:00:00Z",
		"END_HOUR" : "0001-01-01T23:00:00Z"
	}
]}
