-r common.txt
cx-Oracle==7.2.3
-e git+ssh://git@gitlab.cern.ch:7999/cms-icmsweb/icms-orm.git@c1393be00b97cec92ac3fcf8245f22c275d99ab2#egg=icms_orm
-e git+ssh://git@gitlab.cern.ch:7999/cms-icmsweb/icms-common.git@a39a413e259565a833c7a3cd89b25b7068b0bc6b#egg=icms_common
